%YAML 1.1
%TAG !u! tag:unity3d.com,2011:
--- !u!1045 &1
EditorBuildSettings:
  m_ObjectHideFlags: 0
  serializedVersion: 2
  m_Scenes:
  - enabled: 1
    path: Assets/GoogleVR/Demos/Scenes/VideoDemo.unity
    guid: c79d901ffb34f428eadaa3a7269a6c7c
  - enabled: 1
    path: Assets/GoogleVR/Demos/Scenes/HelloVR.unity
    guid: bb36d2905dc634f1c9eecb35beecaca8
  - enabled: 1
    path: Assets/GoogleVR/Demos/Scenes/Craneo.unity
    guid: 3c55f7340a6af57449d110b3089c5fe9
  - enabled: 1
    path: Assets/GoogleVR/Demos/Scenes/Sisoseo.unity
    guid: 48bfaa3462dc17b48aabfa49358dfdda
  m_configObjects: {}
